Test on 20/06/2017 11:27:09 a. m.-----------------------
Object reference not set to an instance of an object.Test on 20/06/2017 11:27:25 a. m.-----------------------
Object reference not set to an instance of an object.Test on 20/06/2017 11:40:57 a. m.-----------------------
Object reference not set to an instance of an object.Test on 20/06/2017 11:41:03 a. m.-----------------------
Object reference not set to an instance of an object.Test on 20/06/2017 11:41:10 a. m.-----------------------
Object reference not set to an instance of an object.Test on 20/06/2017 12:04:01 p. m.-----------------------
Cannot access child value on Newtonsoft.Json.Linq.JValue.Test on 22/06/2017 01:03:03 p. m.-----------------------
charge and order amount most match.Test on 22/06/2017 01:04:04 p. m.-----------------------
charge and order amount most match.Test on 22/06/2017 01:09:55 p. m.-----------------------
charge and order amount most match.