Test on 20/06/2017 01:09:57 p. m.-----------------------
Procedure or function EnpadiOrderInsert has too many arguments specified.Test on 20/06/2017 01:09:59 p. m.-----------------------
Procedure or function EnpadiChargeInsert has too many arguments specified.Test on 20/06/2017 01:17:47 p. m.-----------------------
Procedure or function EnpadiChargeInsert has too many arguments specified.Test on 20/06/2017 01:22:42 p. m.-----------------------
Error converting data type nvarchar to decimal.Test on 20/06/2017 02:22:50 p. m.-----------------------
Procedure or function 'EnpadiLineItemInsert' expects parameter '@id', which was not supplied.Test on 21/06/2017 07:21:15 p. m.-----------------------
Error converting data type nvarchar to numeric.Test on 21/06/2017 07:22:33 p. m.-----------------------
Error converting data type nvarchar to numeric.Test on 21/06/2017 07:29:36 p. m.-----------------------
Error converting data type nvarchar to numeric.Test on 21/06/2017 07:36:22 p. m.-----------------------
Error converting data type nvarchar to numeric.Test on 21/06/2017 07:38:49 p. m.-----------------------
Error converting data type nvarchar to numeric.Test on 21/06/2017 07:38:56 p. m.-----------------------
Error converting data type nvarchar to numeric.Test on 21/06/2017 07:39:36 p. m.-----------------------
Error converting data type nvarchar to numeric.Test on 21/06/2017 07:39:54 p. m.-----------------------
Error converting data type nvarchar to numeric.Test on 21/06/2017 07:40:23 p. m.-----------------------
Error converting data type nvarchar to numeric.Test on 21/06/2017 07:40:48 p. m.-----------------------
Error converting data type nvarchar to numeric.Test on 21/06/2017 07:41:18 p. m.-----------------------
Error converting data type nvarchar to numeric.Test on 12/07/2017 08:09:31 p. m.-----------------------
Error Id 1000: store procedure mismatch with modelError Id 1000: store procedure mismatch with modelProcedure or function 'EnpadiOrderInsert' expects parameter '@address_line1', which was not supplied.Test on 12/07/2017 08:10:36 p. m.-----------------------
Error Id 1000: store procedure mismatch with modelError Id 1000: store procedure mismatch with modelProcedure or function 'EnpadiOrderInsert' expects parameter '@address_line1', which was not supplied.Test on 12/07/2017 08:11:57 p. m.-----------------------
Error Id 1000: store procedure mismatch with modelError Id 1000: store procedure mismatch with modelProcedure or function 'EnpadiOrderInsert' expects parameter '@address_line1', which was not supplied.Test on 12/07/2017 08:12:59 p. m.-----------------------
Error Id 1000: store procedure mismatch with modelError Id 1000: store procedure mismatch with modelProcedure or function 'EnpadiOrderInsert' expects parameter '@address_line1', which was not supplied.Test on 12/07/2017 08:14:04 p. m.-----------------------
Error Id 1000: store procedure mismatch with modelError Id 1000: store procedure mismatch with modelProcedure or function 'EnpadiOrderInsert' expects parameter '@address_line1', which was not supplied.Test on 19/07/2017 11:44:31 a. m.-----------------------
Error Id 1000: store procedure mismatch with modelError Id 1000: store procedure mismatch with modelProcedure or function 'EnpadiOrderInsert' expects parameter '@address_line1', which was not supplied.Test on 19/07/2017 12:05:05 p. m.-----------------------
Error Id 1000: store procedure mismatch with modelError Id 1000: store procedure mismatch with modelProcedure or function 'EnpadiOrderInsert' expects parameter '@address_line1', which was not supplied.